{
 "objects": [
  {
   "name": "JC Denton",
   "id": "JC Denton",
   "contents": [],
   "description": "",
   "events": {},
   "location": "Dock",
   "type": "object",
   "equipment": {}
  },
  {
   "name": "Pistol",
   "id": "glock1",
   "contents": [],
   "description": "",
   "events": {},
   "location": "Dock",
   "type": "object",
   "ammo": 6,
   "is_inv": true,
   "equipment": {}
  },
  {
   "name": "Trench Coat",
   "id": "trench_coat",
   "contents": [],
   "description": "",
   "events": {},
   "location": "Dock",
   "type": "object",
   "wearable": true,
   "is_inv": true,
   "slot": "armour",
   "equipment": {}
  }
 ],
 "zones": [
  {
   "name": "Dock",
   "id": "Dock",
   "contents": [
    "JC Denton",
    "glock1",
    "trench_coat"
   ],
   "description": "The docks.",
   "events": {},
   "paths": {
    "north": {
     "lock": false,
     "target": "Island: South",
     "description": "",
     "key": ""
    },
    "west": {
     "lock": false,
     "target": "",
     "description": "",
     "key": ""
    },
    "east": {
     "lock": false,
     "target": "",
     "description": "",
     "key": ""
    },
    "south": {
     "lock": false,
     "target": "",
     "description": "",
     "key": ""
    },
    "up": {
     "lock": false,
     "target": "",
     "description": "",
     "key": ""
    },
    "down": {
     "lock": false,
     "target": "",
     "description": "",
     "key": ""
    },
    "in": {
     "lock": false,
     "target": "",
     "description": "",
     "key": ""
    },
    "out": {
     "lock": false,
     "target": "",
     "description": "",
     "key": ""
    }
   },
   "type": "zone"
  },
  {
   "name": "Island: South",
   "id": "Island: South",
   "contents": [],
   "description": "",
   "events": {},
   "paths": {
    "north": {
     "lock": false,
     "target": "",
     "description": "",
     "key": ""
    },
    "west": {
     "lock": false,
     "target": "",
     "description": "",
     "key": ""
    },
    "east": {
     "lock": false,
     "target": "",
     "description": "",
     "key": ""
    },
    "south": {
     "lock": false,
     "target": "Dock",
     "description": "",
     "key": ""
    },
    "up": {
     "lock": false,
     "target": "",
     "description": "",
     "key": ""
    },
    "down": {
     "lock": false,
     "target": "",
     "description": "",
     "key": ""
    },
    "in": {
     "lock": false,
     "target": "",
     "description": "",
     "key": ""
    },
    "out": {
     "lock": false,
     "target": "",
     "description": "",
     "key": ""
    }
   },
   "type": "zone"
  }
 ],
 "author": "Kaiser",
 "name": "Deus Ex: DE-Make",
 "id": "deusex",
 "variables": {
  "__player": "JC Denton"
 },
 "libraries": [
  "main",
  "inventory"
 ],
 "scenes": {
  "test": {
   "start": {
    "text": "Welcome to the test scene.",
    "options": [
     {
      "target": "explain",
      "text": "What is this?"
     },
     {
      "target": "leave",
      "text": "I'm out of here!"
     }
    ]
   },
   "explain": {
    "text": "This is a test for the scene manager, to simulate conversations.",
    "options": [
     {
      "target": "__back",
      "text": "I get it!"
     }
    ]
   },
   "leave": {
    "text": "Really?.",
    "options": [
     {
      "target": "__end",
      "text": "Yes"
     },
     {
      "target": "start",
      "text": "nvm"
     }
    ]
   }
  }
 },
 "intro": "You depart from your boat on to the docks of Liberty Island."
}